…
Amazingly, we have results for ALL polls defined in the shapefile!

But what are these polls for which we dont have a shape? Mostly, this is the advance poll (numbers 600-630) for which we didnt expect to have a shapefile. There are a few exceptions. For example, why is there no PD_NUM==4 in FED_NUM 35058 in the shape file?

The really important thing for our purpose is to have results covering the whole map of Canada, which is the case.

## # A tibble: 3 x 15
##   FED_NUM dist_name EMRP_NAME poll_ballot_rej… poll_votes winner pct_winner
##     <dbl> <chr>     <chr>                <dbl>      <dbl> <chr>       <dbl>
## 1   35058 Mississa… 4                        0          0 conse…        NaN
## 2   35094 Scarboro… 4                        0          0 autre         NaN
## 3   48020 Edmonton… 4                        0          0 autre         NaN
## # … with 8 more variables: autre <dbl>, bloc <dbl>, conservateur <dbl>,
## #   libéral <dbl>, npd <dbl>, vert <dbl>, poll_merged_with <chr>, pollid <chr>
## # A tibble: 123 x 2
##    EMRP_NAME     n
##    <chr>     <int>
##  1 600         338
##  2 601         338
##  3 602         338
##  4 603         338
##  5 604         338
##  6 605         337
##  7 606         337
##  8 607         336
##  9 608         333
## 10 609         326
## # … with 113 more rows
…
