…
logistic_glm_spec <- 
  parsnip::logistic_reg() %>%
  parsnip::set_engine("glm")

logistic_glm_fit <-logistic_glm_spec %>%
  parsnip::fit(
    formula = my_logistic_reg_formula,
    data = my_train)

logistic_glm_fit %>%
  extract_fit_engine() %>% 
  tidy()

## # A tibble: 22 × 5
##    term          estimate std.error statistic p.value
##    <chr>            <dbl>     <dbl>     <dbl>   <dbl>
##  1 (Intercept)     1.20      0.443       2.71 0.00670
##  2 veh_value      -0.0543    0.0207     -2.62 0.00879
##  3 veh_bodyCONVT   2.25      0.849       2.65 0.00796
##  4 veh_bodyCOUPE   0.963     0.453       2.12 0.0337 
##  5 veh_bodyHBACK   1.28      0.431       2.97 0.00300
##  6 veh_bodyHDTOP   1.12      0.442       2.54 0.0111 
##  7 veh_bodyMCARA   0.532     0.530       1.00 0.316  
##  8 veh_bodyMIBUS   1.44      0.466       3.09 0.00198
##  9 veh_bodyPANVN   1.05      0.455       2.30 0.0216 
## 10 veh_bodyRDSTR   1.25      0.856       1.46 0.144  
## # ℹ 12 more rows

Non-tidymodels output
is this the same output as directly running the normal glm?

yes!

glm(my_logistic_reg_formula,    family = "binomial", data = my_train)  %>% 
  tidy()

## # A tibble: 22 × 5
##    term          estimate std.error statistic p.value
##    <chr>            <dbl>     <dbl>     <dbl>   <dbl>
##  1 (Intercept)     1.20      0.443       2.71 0.00670
##  2 veh_value      -0.0543    0.0207     -2.62 0.00879
##  3 veh_bodyCONVT   2.25      0.849       2.65 0.00796
##  4 veh_bodyCOUPE   0.963     0.453       2.12 0.0337 
##  5 veh_bodyHBACK   1.28      0.431       2.97 0.00300
##  6 veh_bodyHDTOP   1.12      0.442       2.54 0.0111 
##  7 veh_bodyMCARA   0.532     0.530       1.00 0.316  
##  8 veh_bodyMIBUS   1.44      0.466       3.09 0.00198
##  9 veh_bodyPANVN   1.05      0.455       2.30 0.0216 
## 10 veh_bodyRDSTR   1.25      0.856       1.46 0.144  
## # ℹ 12 more rows
…
What if we want to weights records? It doesnt really make sense in this logistic example, but will in the future for the loss_cost model. . Apparently we can use add_case_weights() and refer to the exposure_weight column of type importance_weight we created earlier:

Tidymodels output

weighted_logistic_glm_wf <-   workflow() %>% 
  add_case_weights(exposure_weight) %>% 
  add_formula(my_logistic_reg_formula) %>%
  add_model(logistic_glm_spec)

weighted_logistic_glm_wf_fit <-  weighted_logistic_glm_wf%>% 
  fit(data = my_train)

weighted_logistic_glm_wf_fit %>% tidy()

## # A tibble: 22 × 5
##    term          estimate std.error statistic p.value
##    <chr>            <dbl>     <dbl>     <dbl>   <dbl>
##  1 (Intercept)     0.634     0.544      1.17  0.243  
##  2 veh_value      -0.0461    0.0271    -1.70  0.0893 
##  3 veh_bodyCONVT   1.99      1.03       1.93  0.0539 
##  4 veh_bodyCOUPE   1.03      0.563      1.83  0.0667 
##  5 veh_bodyHBACK   1.41      0.527      2.68  0.00729
##  6 veh_bodyHDTOP   1.20      0.541      2.22  0.0262 
##  7 veh_bodyMCARA   0.625     0.676      0.923 0.356  
##  8 veh_bodyMIBUS   1.42      0.574      2.46  0.0137 
##  9 veh_bodyPANVN   1.13      0.556      2.04  0.0417 
## 10 veh_bodyRDSTR   0.934     1.02       0.916 0.360  
## # ℹ 12 more rows

Non-tidymodels output

is it the same a directly modelling outside tidymodels? Yes!

glm(my_logistic_reg_formula,    family = "binomial", data = my_train, weights = exposure) %>% tidy()

## # A tibble: 22 × 5
##    term          estimate std.error statistic p.value
##    <chr>            <dbl>     <dbl>     <dbl>   <dbl>
##  1 (Intercept)     0.634     0.544      1.17  0.243  
##  2 veh_value      -0.0461    0.0271    -1.70  0.0893 
##  3 veh_bodyCONVT   1.99      1.03       1.93  0.0539 
##  4 veh_bodyCOUPE   1.03      0.563      1.83  0.0667 
##  5 veh_bodyHBACK   1.41      0.527      2.68  0.00729
##  6 veh_bodyHDTOP   1.20      0.541      2.22  0.0262 
##  7 veh_bodyMCARA   0.625     0.676      0.923 0.356  
##  8 veh_bodyMIBUS   1.42      0.574      2.46  0.0137 
##  9 veh_bodyPANVN   1.13      0.556      2.04  0.0417 
## 10 veh_bodyRDSTR   0.934     1.02       0.916 0.360  
## # ℹ 12 more rows
…
my_logistic_reg_formula_with_splines <- as.formula('has_claim_fct ~ s(veh_value, bs= "tp") + veh_body + veh_age +  gender +  area +  agecat')

logistic_gam_wf <- workflow() %>%
  add_model(logistic_gam_spec, formula = my_logistic_reg_formula_with_splines) %>%  # need to add formula twice, and  in add_formula
  add_formula(my_logistic_reg_formula) %>%
  add_case_weights(exposure_weight)

logistic_gam_wf_fit <-  logistic_gam_wf%>% 
  fit(data = my_train )

logistic_gam_wf_fit %>% tidy(parametric = TRUE)

## # A tibble: 21 × 5
##    term          estimate std.error statistic p.value
##    <chr>            <dbl>     <dbl>     <dbl>   <dbl>
##  1 (Intercept)      0.789     0.542     1.45  0.146  
##  2 veh_bodyCONVT    1.66      1.04      1.60  0.110  
##  3 veh_bodyCOUPE    0.982     0.566     1.74  0.0826 
##  4 veh_bodyHBACK    1.32      0.531     2.48  0.0131 
##  5 veh_bodyHDTOP    1.27      0.545     2.34  0.0195 
##  6 veh_bodyMCARA    0.709     0.679     1.04  0.296  
##  7 veh_bodyMIBUS    1.50      0.578     2.60  0.00945
##  8 veh_bodyPANVN    1.11      0.559     1.98  0.0475 
##  9 veh_bodyRDSTR    0.872     1.02      0.853 0.394  
## 10 veh_bodySEDAN    1.30      0.530     2.46  0.0138 
## # ℹ 11 more rows

same result if I do it directly using mgcv::gam? Yes!

mgcv::gam(
  formula = my_logistic_reg_formula_with_splines, 
  data = my_train, 
  weights = exposure,
  family = stats::binomial(link = "logit"),
  method="REML") %>% 
  broom::tidy(parametric= TRUE)

## # A tibble: 21 × 5
##    term          estimate std.error statistic p.value
##    <chr>            <dbl>     <dbl>     <dbl>   <dbl>
##  1 (Intercept)      0.789     0.542     1.45  0.146  
##  2 veh_bodyCONVT    1.66      1.04      1.60  0.110  
##  3 veh_bodyCOUPE    0.982     0.566     1.74  0.0826 
##  4 veh_bodyHBACK    1.32      0.531     2.48  0.0131 
##  5 veh_bodyHDTOP    1.27      0.545     2.34  0.0195 
##  6 veh_bodyMCARA    0.709     0.679     1.04  0.296  
##  7 veh_bodyMIBUS    1.50      0.578     2.60  0.00945
##  8 veh_bodyPANVN    1.11      0.559     1.98  0.0475 
##  9 veh_bodyRDSTR    0.872     1.02      0.853 0.394  
## 10 veh_bodySEDAN    1.30      0.530     2.46  0.0138 
## # ℹ 11 more rows
…
rank_results(all_workflows6, rank_metric = "roc_auc")

## # A tibble: 24 × 9
##    wflow_id         .config .metric  mean std_err     n preprocessor model  rank
##    <chr>            <chr>   <chr>   <dbl>   <dbl> <int> <chr>        <chr> <int>
##  1 recipe_with_imp… Prepro… accura… 0.932 0.00133     5 recipe       boos…     1
##  2 recipe_with_imp… Prepro… roc_auc 0.545 0.00222     5 recipe       boos…     1
##  3 recipe_with_imp… Prepro… accura… 0.932 0.00133     5 recipe       boos…     2
##  4 recipe_with_imp… Prepro… roc_auc 0.544 0.00280     5 recipe       boos…     2
##  5 recipe_with_imp… Prepro… accura… 0.932 0.00133     5 recipe       boos…     3
##  6 recipe_with_imp… Prepro… roc_auc 0.543 0.00251     5 recipe       boos…     3
##  7 recipe_with_imp… Prepro… accura… 0.932 0.00133     5 recipe       boos…     4
##  8 recipe_with_imp… Prepro… roc_auc 0.543 0.00198     5 recipe       boos…     4
##  9 recipe_with_imp… Prepro… accura… 0.932 0.00133     5 recipe       boos…     5
## 10 recipe_with_imp… Prepro… roc_auc 0.543 0.00279     5 recipe       boos…     5
## # ℹ 14 more rows
…
Reproducing “non-tidymodels” specs in tidymodels

GLM weighted

direct call to glm() with tweedie family:

tweedie_fit <- 
  glm(formula =  my_loss_cost_formula,
      family=tweedie(var.power=my_p_max, link.power=0),
      weights = exposure,
      data = my_train)

tweedie_fit %>% tidy()

## # A tibble: 22 × 5
##    term          estimate std.error statistic p.value
##    <chr>            <dbl>     <dbl>     <dbl>   <dbl>
##  1 (Intercept)     5.81      2.56      2.27    0.0231
##  2 veh_value       0.0624    0.0939    0.664   0.507 
##  3 veh_bodyCONVT  -2.32      4.21     -0.550   0.582 
##  4 veh_bodyCOUPE   0.441     2.60      0.169   0.866 
##  5 veh_bodyHBACK  -0.123     2.52     -0.0490  0.961 
##  6 veh_bodyHDTOP   0.110     2.55      0.0430  0.966 
##  7 veh_bodyMCARA  -0.758     3.19     -0.238   0.812 
##  8 veh_bodyMIBUS  -0.111     2.61     -0.0425  0.966 
##  9 veh_bodyPANVN  -0.192     2.59     -0.0741  0.941 
## 10 veh_bodyRDSTR  -0.927     4.74     -0.196   0.845 
## # ℹ 12 more rows
…
tweedie_glm_spec <- 
  parsnip::linear_reg(mode = "regression") %>%
  parsnip::set_engine("glm", family=tweedie(var.power=my_p_max, link.power=0))

tweedie_glm_wf <-   workflow() %>% 
  add_case_weights(exposure_weight) %>% 
  add_formula(my_loss_cost_formula) %>%
  add_model(tweedie_glm_spec)

tweedie_glm_wf_fit <-  tweedie_glm_wf %>% 
  fit(data = my_train)

tweedie_glm_wf_fit %>%  tidy()

## # A tibble: 22 × 5
##    term          estimate std.error statistic p.value
##    <chr>            <dbl>     <dbl>     <dbl>   <dbl>
##  1 (Intercept)     5.81      2.56      2.27    0.0231
##  2 veh_value       0.0624    0.0939    0.664   0.507 
##  3 veh_bodyCONVT  -2.32      4.21     -0.550   0.582 
##  4 veh_bodyCOUPE   0.441     2.60      0.169   0.866 
##  5 veh_bodyHBACK  -0.123     2.52     -0.0490  0.961 
##  6 veh_bodyHDTOP   0.110     2.55      0.0430  0.966 
##  7 veh_bodyMCARA  -0.758     3.19     -0.238   0.812 
##  8 veh_bodyMIBUS  -0.111     2.61     -0.0425  0.966 
##  9 veh_bodyPANVN  -0.192     2.59     -0.0741  0.941 
## 10 veh_bodyRDSTR  -0.927     4.74     -0.196   0.845 
## # ℹ 12 more rows
…
tweedie_gam_wf <- workflow() %>%
  add_model(tweedie_gam_spec, formula = my_loss_cost_spline_formula) %>%  # need to add formula twice, and  in add_formula
  add_formula(my_loss_cost_formula) %>%
  add_case_weights(exposure_weight)

tweedie_gam_wf_fit <-  tweedie_gam_wf%>% 
  fit(data = my_train )

tweedie_gam_wf_fit %>% tidy(parametric = TRUE)

## # A tibble: 21 × 5
##    term          estimate std.error statistic    p.value
##    <chr>            <dbl>     <dbl>     <dbl>      <dbl>
##  1 (Intercept)      5.92       1.23    4.83   0.00000136
##  2 veh_bodyCONVT   -2.32       2.03   -1.14   0.254     
##  3 veh_bodyCOUPE    0.441      1.26    0.351  0.726     
##  4 veh_bodyHBACK   -0.123      1.22   -0.101  0.919     
##  5 veh_bodyHDTOP    0.110      1.23    0.0890 0.929     
##  6 veh_bodyMCARA   -0.759      1.54   -0.493  0.622     
##  7 veh_bodyMIBUS   -0.112      1.26   -0.0884 0.930     
##  8 veh_bodyPANVN   -0.192      1.25   -0.153  0.878     
##  9 veh_bodyRDSTR   -0.928      2.29   -0.406  0.685     
## 10 veh_bodySEDAN   -0.138      1.21   -0.113  0.910     
## # ℹ 11 more rows

same result if I do it directly using mgcv::gam?

mgcv::gam(
  formula = my_loss_cost_spline_formula, 
  data = my_train, 
  weights = exposure,
  family = Tweedie(p = my_p_max, link = "log"),
  method="REML") %>% 
  broom::tidy(parametric= TRUE)

## # A tibble: 21 × 5
##    term          estimate std.error statistic    p.value
##    <chr>            <dbl>     <dbl>     <dbl>      <dbl>
##  1 (Intercept)      5.92       1.23    4.83   0.00000136
##  2 veh_bodyCONVT   -2.32       2.03   -1.14   0.254     
##  3 veh_bodyCOUPE    0.441      1.26    0.351  0.726     
##  4 veh_bodyHBACK   -0.123      1.22   -0.101  0.919     
##  5 veh_bodyHDTOP    0.110      1.23    0.0890 0.929     
##  6 veh_bodyMCARA   -0.759      1.54   -0.493  0.622     
##  7 veh_bodyMIBUS   -0.112      1.26   -0.0884 0.930     
##  8 veh_bodyPANVN   -0.192      1.25   -0.153  0.878     
##  9 veh_bodyRDSTR   -0.928      2.29   -0.406  0.685     
## 10 veh_bodySEDAN   -0.138      1.21   -0.113  0.910     
## # ℹ 11 more rows
…
